<?xml version="1.0" encoding="UTF-8"?>
<svg viewBox="0 0 400 100" version="1.1" xmlns="http://www.w3.org/2000/svg">
    <title>trapecio</title>
    <desc>Created with Sketch.</desc>
    <g id="trapecio" stroke="none" stroke-width="1" fill="none" fill-rule="evenodd">
        <polygon id="Rectangle" fill="#e3609e" fill-rule="nonzero" points="0 0 400 0 380 100 20 100"></polygon>
    </g>
</svg>
